*** Life<Cell> 1x1 ***

Generation = 0, Population = 1.
0

Generation = 10, Population = 0.
-

Generation = 20, Population = 0.
-

Generation = 30, Population = 0.
-

Generation = 40, Population = 0.
-

Generation = 50, Population = 0.
-

*** Life<Cell> 3x3 ***

Generation = 0, Population = 3.
-0-
-0-
-0-

Generation = 10, Population = 0.
---
---
---

Generation = 20, Population = 0.
---
---
---

*** Life<Cell> 20x20 ***

Generation = 0, Population = 19.
--------------------
--0000000000--------
---0----------------
---0----------------
--0000--------------
--------------------
---00---------------
--------------------
------0-------------
--------------------
--------------------
--------------------
--------------------
--------------------
--------------------
--------------------
--------------------
--------------------
--------------------
--------------------

Generation = 1, Population = 40.
--0000000000--------
-011-------10-------
-----0000000--------
-----0--------------
-011-10-------------
--0--0--------------
--0110--------------
---00-0-------------
-----0-0------------
------0-------------
--------------------
--------------------
--------------------
--------------------
--------------------
--------------------
--------------------
--------------------
--------------------
--------------------

Generation = 2, Population = 36.
---1----------------
01*-------0*10------
-0000---------------
-0000-000000--------
01**-*10------------
---0----------------
-0-**---------------
--------------------
---0----0-----------
--------------------
------0-------------
--------------------
--------------------
--------------------
--------------------
--------------------
--------------------
--------------------
--------------------
--------------------

Generation = 3, Population = 59.
00--0-----0000------
1*.10----01*-10-----
-1-1-00000--00------
-1---0-1---10-------
1*..0**--000--------
0----000------------
0--**0--------------
-0--0---0-----------
--0-0--0-0----------
---0--0-0-----------
-----0-0------------
------0-------------
--------------------
--------------------
--------------------
--------------------
--------------------
--------------------
--------------------
--------------------

Generation = 4, Population = 43.
--0-10-----1--------
-..---00--*.-*10----
---*0--1---0--------
--00---*------------
-*..1..001----------
---001110000--------
1-0*.--00-----------
--------------------
---010----0---------
--------------------
---00---------------
--------------------
------0-------------
--------------------
--------------------
--------------------
--------------------
--------------------
--------------------
--------------------

Generation = 5, Population = 72.
-0--*1-0----0000----
-..1--1-00**1.-10---
---*10--0---0000----
--1-0-0*-0-1--------
1...*..11--0--------
00--1----1-10-------
--1*.0----00--------
0-0-00-00-0---------
--01-10--0-0--------
-----0----0---------
--0110--------------
---00-0-------------
-----0-0------------
------0-------------
--------------------
--------------------
--------------------
--------------------
--------------------
--------------------

Generation = 6, Population = 74.
0-0-**0--00---------
-.**00-0--*.*.1*10--
---.*10-1000--------
01-0-01.---*-000----
*...*.*-*10---------
-1--*--1--0*10------
---..1000-----------
----11011010--------
00-*1*1-----0-------
--------------------
-01**-----0---------
--------------------
---0----0-----------
--------------------
------0-------------
--------------------
--------------------
--------------------
--------------------
--------------------

Generation = 7, Population = 100.
--11..1-01-10-0000--
1**.-1---0....**-10-
010..--1*-1--0--00--
-*----*.--0*-1-10---
*.***.*1*--00-00----
--00*-1*0--*-10-----
-0-..-1-----00------
00-----**--1--------
11-**.--000--0------
0-0--00---0-0-------
01-*.0---0-0--------
-00-0---0-0---------
--0-0--0-0----------
---0--0-0-----------
-----0-0------------
------0-------------
--------------------
--------------------
--------------------
--------------------

Generation = 8, Population = 84.
0--*..--1--*1--1----
-...0--001.**...-*10
---..1-**0*-01-0----
0.1000*.-0-.0*0-----
....*..**1-11-------
0--1*-*.-10*--------
-1-*.1*0---01-------
-1001--**-----------
*-0***1-------0-----
---0--100010--------
---*.1--------------
---01---------------
--1010--------------
--------------------
---00---------------
--------------------
------0-------------
--------------------
--------------------
--------------------

Generation = 9, Population = 95.
-01...--*-0*-00-0000
1...--1---....*.1.-1
0-0..*0..-.01-0-0000
-.*-11..0--.1.1-----
.**....*.*0---0-----
--0-.1..---.1-------
-*1..*.--0--*0------
--1--10.*0-10-0-----
.1-...-0-000-0-0----
0----0-----10-0-----
--1*.--00000--------
---1-0--------------
-0*1*10-------------
--0--0--------------
--0110--------------
---00-0-------------
-----0-0------------
------0-------------
--------------------
--------------------

Generation = 10, Population = 110.
-1*...10.-1.-1------
*.*.--*00-*...*.-.1-
1-1**.-*.-.1--------
0.*-*-.*--0.*.-10000
.**.***.**11-010----
-1-1.**.--0**-0-----
1*****.--10-.1------
-1*01-1*.11---------
.--..*--0--1----0---
--000-1-0-1*10------
01**.-01------0-----
-00-11-00000--------
01.*.-10------------
---00---------------
-0-**---------------
--------------------
---0----0-----------
--------------------
------0-------------
--------------------

Generation = 11, Population = 114.
-**...--*1*.1-----0-
*...01.-1-**....-.-1
--*.**-..-*---0000-0
1..0.-.*--1.**-----1
*.......*.---1*--000
---*...*011..-1-----
*......00-1-*-------
--.1--**.----0--0---
.1-...1-1-0*-0-0-0--
0--110*01-**-1--0---
1*...---00--0--0----
01--**-1---10-0-----
1-...-*--000--------
0-01-000------------
0--**0--------------
-0--0---0-----------
--0-0--0-0----------
---0--0-0-----------
-----0-0------------
------0-------------

Generation = 12, Population = 110.
-*....-0*-*.-1---0--
..*.--.0*1.....*1*-*
-1...*0..0*-1-1--1--
**.-*1..-0***.110---
..........----*001--
--0.....---*.-*0-000
.......1-1*-.-0-0---
01.-11*..--1-10-----
.-0*..--*--*------0-
100*--*-*0..1*00----
*.**.-01-1-01-------
1-01.*0-------------
--**.1.001----0-----
--1-0-110000--------
1--..--00-----------
--------------------
---010----0---------
--------------------
---00---------------
--------------------

Generation = 13, Population = 150.
0.....1-.1..1-01-100
.**.-1.-.-.*.***-*-.
-**.**1*.1.1*-*00*00
**.0*-*.0-..*.**-0--
.*........1-11.-1--0
-1-.....-1-..1.----1
.*...**--**0*--0--00
1**-*-***1-*-*-00-0-
.1-...-0*-0*---0-0-0
---.10*0.-..-*-10-0-
*....-1*0*-1--00----
*-1*.*-10--10-0-----
11...*.-1--0-0-0----
00*1-0*--1-10-0-----
-00..-----00--------
0--000-00-0---------
--01-10--0-0--------
-----0----0---------
--0110--------------
---00---------------

Generation = 14, Population = 134.
-*....-0.-..-1-----1
*.**-*.0*-.*....1.1.
-.....***-*-.1.--.-1
*..1*1*.--*.....-1--
.*.......*----.---01
0-0.....0*1..**00---
.....**--..1.101-0--
*.*-.1...--.0.-11010
**-**.11.01*0-0-----
10-.*-.1.0.*1.0*10--
.*.*.1-.1*-*------0-
*1*.**0-1-0*1010----
*-...*.-*-0-----0---
--.*--*1--0*10------
1--..-000-----0-----
--0---011010--------
001-1*1-----0-------
--------------------
-01**-0---0---------
--------------------

Generation = 15, Population = 150.
-**...11*-..1-0-0---
.**.-..1.1..*...-.-*
-**.....*-*-.-.-0*--
...**-*.0-*.....0---
******..*.1--1*01-1*
-1-.....1**.**.11-01
.....**10**-.-1*-1-0
*.*-.*.*.11.1.0--1-1
..0**.*-.--.1-10--00
-10..-.*.-..-.-*-1--
...*.*-.-.0.10--0--0
****..1--0-.---1--0-
*-**...-*--0--0--0--
--..0-.-01-*-1--0---
-00..01-----0--0----
--100-1**--1--0-----
1---**--000--0------
0--0-0----0-0-------
01-*.--0-0-0--------
-0000-0---0---------

Generation = 16, Population = 138.
0**...***-..*----1-1
*..*-.**.-.*.*.*-*1.
1*......*1*1.-.0-*01
*....1..--**..*.--01
**...*..*.-1--.1*--*
-*-*....*...*..*-0-*
.*...*.*1..1*--.0*0-
.**-.....--.*.-11*1-
..1.***1*01**---001-
1*-..0*..-.*-.-*1---
*..**.-.-.-.*100----
*.....-1---*10------
*1..*..0*1010-------
00..--.1-*-*1-------
11-..1---0-0--------
0------.*-----------
*011..--------------
--0101000010--------
--1..0--------------
---11---------------

Generation = 17, Population = 141.
-**...*.*1..*--10*0-
....0.*..1.*..*.-.-.
**....***-.*.1.1-.--
.....*..--..*.*.0--*
***.*....*-*--*-*--*
-*-.*.*.**..*..*-10*
**.....*-..**1-.-.--
.**1*....11..*0*-.*1
*.***..-*--.*0-011-0
-*-..-..*0..1.-.--0-
*...**1.-.-..*------
*..**.1*-0-.---1----
.-....*1.*--1-------
11*.00**0.0.-1------
*-0..-10-1-1--------
-010-0-..--1--------
*-*-.*10-000--------
0-1*-*-----10-------
-1*..1-00000--------
---**---------------

Generation = 18, Population = 170.
0....*.**-*..1-*-*11
*.*.-.*..*.*.**.1*1.
......***-**.-.--.-1
..*..***00***.*.110.
*****...**-*11*1*--*
0.-*.*.***....**1*-*
*...**.*-..*.--*-*--
...**...***...-*-**-
*...*..1*01**-1--*-1
1*-..0.**1..*.-.1---
**.**.-.1*-...00--0-
...**.*.-10.101-0---
*1*....*.*-1---0----
--**1-..1.-*--0-----
*--..1--0-0*00------
01-1-11..---0-------
*0.1.*-1-1-1--------
10**-*--0-1*10------
-*...*-1------------
-0-**--00000--------

Generation = 19, Population = 150.
1*....***1*.**0*0.**
.*..-*.....*.****.-.
.*.......-...1*--.0-
..*.**..-1....*.--1*
*.........1.*-.*.1-*
-.-..*.*.*.*....**-.
.....*.*1....--.0.-0
...*..*.....*.-*-*.-
**.****-.-*.*----*1-
*.0*.-*..*..*.-.--00
**.*..1.-.-**.-100-0
....**.*-*1**----00-
.-...*.*.*0*-00-----
--***-.**.-.--------
*-0..*-01-1.11------
1--*-****0111-------
.1.-.*1-0-0*00------
--.*-*00-0**-10-----
-....*-*00--00------
01-.*-0----10-------

Generation = 20, Population = 153.
**....***-***.1.-*..
.**.0.******....*.-*
.**.**...1..*-.-0*1-
.*......0-....**---*
....***.**-*.1.*.*1*
0.-....*.***...*.*0.
....**.**....--*1.0-
..**.......*..0.1*.1
**....*1.-..*0-01*--
..1..-**..*.**-.11--
**.*..**-*-..*0*---1
....**.*-**..-11--1-
.-...*.*..1.1110-00-
11***0....-.1-0-----
.-1..*11*1*.-*0-----
*--.-....--**0------
.-*-..*-1-1.1-------
-0..-.1---..-*10----
0.....-.---0--------
1*0..0--000*--------

Generation = 21, Population = 152.
***..**..1..*.-.-...
....1........*.**.-.
*...***..*.*.1.--**1
.***..**11*.****--1*
.....**...1**-.*.***
-.-........**..*..1.
...**.****.*.--.-.1-
.*****..*...**-.*..-
.*.*..*-.-...-11-.11
..-..0.....*..-.--00
.****...-*0**.1.-0--
....**.*-****0**0-*-
.1*.....***.-----1-0
*-**.1....-.*----00-
*-*..*--*-*.1.-0----
.1-.-*...01..-------
.-.1...----.*000----
--..-.*00-.*-*-10---
1.*...0.00-10000----
-*1..-001--*0-------

Generation = 22, Population = 154.
.*...*...-....-.0...
*..**.....*..**.**1.
.**.*.*..*.*.-.--*.-
.***....-*.....*11*.
..*..**.*.-..-.*.*..
-.-.*...**......*.-.
......******.1-.1**0
.*......**..**-*.**1
.*.*..*1.-..*-**-*--
.*1..-.....***-*----
..**..*.1*1...*.--01
....**..1....-**1-*-
.**..**.*...-110-*--
*1.***..*.-..1-00-1-
*1**.*11.1*.*.0-000-
.--.0....1-.*00-----
.1.-..*1111**1------
1-..-.*---**-.-*10--
-.*..*-.11-*11------
-*-..0----0*--00----

Generation = 23, Population = 148.
....*....-....1*1...
*..**.....*....**.*.
*...**...*...1*10..-
....*.**-**....*--*.
.**.**.**.-..-.*..*.
-.0............*..1.
...........*.*1*-..-
..*...........0*...-
**.....**0...-.*-*-1
.*-..-*.*****.-*1100
.*****.*-****...00-*
.*..*...-....-..*0*-
***...*.**..1-*1-.0-
.*......*.0.**----*0
**....-*.-***.10---0
*-1*-....-1..1-0000-
.-.-.**--**..--000--
--..-**--0..1.1.-10-
1*...*-.**-.-*--00--
1.-..10-1-1*--110---

Generation = 24, Population = 149.
...**....-....*.-*..
...*.........*......
......*.**...*.--..-
.*.....*1**.....-1..
.**.**.***1..-******
-*1*...........**.*.
.............**.1..-
.*......*....*-....1
***....*.-.*.-..1*1*
..-**-*.....*.0**--1
**.*****1...*...11-*
....*.**1...*-...1.-
*.*....***.**1**-.--
........*.1...0--0*-
*.....1..1*...*--001
*1*.0.*..--.*-01111-
.-.1***11***.1--110-
10..0..0--..-*-.1*10
-*..*.0.*.-*-*0-----
**-..-1-*0*.0-*-----

Generation = 25, Population = 145.
...**....-......1...
...**........**.....
..........*....--..-
.**..*..-.....**-*..
*...*.**..-..1*....*
0****...**...*....**
.*...........**.**.0
***.........**-**..*
****...*.-..*0*.-*-*
..-..0..*..***1..1--
..*.....-..**...---.
*.*.*...*....-**.**0
......*...***-**0*0-
.*........*.*.--0-.-
*....***.***..*--1-*
*-*.1....--.*1--*-*-
.-.*...*-***.*--*-1-
*-*.-..100.*1*-*-.*1
1.*...1.*.-*1.-00000
**1..1*-*-**-0*1----

Generation = 26, Population = 113.
...**....-......-...
...**...............
..***........*.1-..-
.*...**.-....***-...
*...*.***.-..-.*...*
-.****.**...*..*.*.*
................**.-
...*..........-....*
*..*.....-...-..-*-.
..-*.-........-..*01
.*.*....-..*...*--0.
.*.*......*..0*....1
.*.......**.*-*.1.--
.....*.*....*.--10.0
*....**..**....00-0.
.-.*-*.*.--..--1*1*-
.-**...*1*....0-*---
.-**-.*-1-..**-*1..-
-.**.**...-.-.-1--1-
*.-..**-.-**01*--000

Generation = 27, Population = 119.
...**....-......-...
.....*..............
..*..........*.*0..-
.**...*.1....*.*1...
.**.....*.-..1.*..*.
0..***..*......*.*..
..*.............**.-
..............-.***.
..***....-...-..1*-*
..1**-........-.**1*
...**...-.....*.1-1.
**.......**.*1*....-
..*......**.*1*.**--
.....*..*....*0-*1*-
.....*.**......-1-1*
.-**-*.*.-1..---.-*0
.1......**...*--.-1-
.0..0**1*-...*1.-*.-
1***......0.-.-*--*-
..1.***0.0.*--*-0111

Generation = 28, Population = 109.
....*....-......-...
...**...............
.**............*-..-
...*...**...**..-*..
*...**..**-..*.*.*..
-..**.........**.**.
...**..........*...-
..*...........-*....
..*.*....-...-.**.-*
..-..0........1...**
.*..*...-.....*.*1**
.***.....**.**..*..-
.*......*.*..-..*.--
......***...*.--.*.-
.....*.***.....0*1*.
.-*.-..*.--..1--.1.-
.*.*.....*...*--.-*-
.-.*1**-*-...**.1**-
*........*-.-*0*-0.-
..*.***1.-*.01.11-**

Generation = 29, Population = 116.
...**....-......-...
..***...............
..*.*...........0..-
.****..***..**..1...
.....*.***1.**.*.*..
0..............*.**.
..*.*..........*...-
..*.*.........0*....
...*.....-...-***.-*
..1**-........*.....
.*.**...-.....*.*-.*
**.*.....***.*..*.*1
.*......*.*.*1..**--
......*.......-0..*-
.........*.....1.-*.
.-*.-.**.--..*01.*.-
...*.****...**--*1*0
.0**-*.-*0..*...*.*1
........**-.-.1.-1.0
.....***.-..1-.-*1*.

Generation = 30, Population = 127.
..*.*....-......-...
..*..*..............
.....*..*.......1..-
.**.****..********..
.****.**..****.*.**.
-.......**.....*.**.
.*.............*...-
..*.*.........-.....
.........-...0..*.1.
..*..0.......**.*...
**......-.*..**..1**
**.**....***.**.*.*-
***.......*.*-***.00
.........*....01..*0
......**.......-.-*.
.1..-*...1-.**--...0
.*.*.*...*..*.--.*.-
.1**-*.-.-..*..**..*
..*.**...*0.-*-*0*.1
......***0..-1.1***.

Generation = 31, Population = 120.
...*.....-......-...
...***..............
.***...*...****.**.-
.*......***.......*.
.*..*...............
-*.*...******..*.**.
................*..-
..............-.....
...*.....-...1**.*-.
.*...-......*...*..*
*..**...-***....****
...*.....*......*..1
*.**........*1..*.1-
.*...........*--*..-
......*.*....**1.1*.
.**.1*..**1.**0-..*-
**.*.**....**.-0*.*-
.-..1**-.-******....
.**.**.*.*1.-*-.-..*
.....****-*.1*.-..*.

Generation = 32, Population = 128.
...*.....-......-...
............**......
.*.*....******...*.-
**.*....******...*..
**.....*.........**.
0.*.....****....**..
........****....**.-
..............0**...
.........-...****.1.
..***-....*****....*
..***...1***...**..*
.*.......*.**..**..*
.***........*-.**.--
.**...........--*.*-
.**..*.**......****.
*****...***...-1..*0
**.*...*......0-**.0
*-..-..-.-.....**...
...*......*.1.-.-...
....**.**0****.-....

Generation = 33, Population = 87.
.........-......-...
..*......**..*......
**......*.....*....-
.......*.....*..**..
.......*..........*.
1......*...*........
........*..*.......-
.........**..*-.....
...*.....-.*....**-.
..*.*0...........***
.*..*...*.......*.**
.*..*...**..*.*..*..
*..*.......**1....10
*.............-1..*0
....*..**......*....
....*.*..*....-*...-
...**...**....--.*.1
*-*.-..1.-.....***..
....*...*.*.**-.0...
....*...*-*.**.-....

Generation = 34, Population = 98.
.........1......-...
.*.......*..........
.*......**...**....-
.......**........*..
......***........*..
-......**...........
........**.**......-
.........****.0.....
...**....0*.....**-.
..*.*1.............*
.**.*...**......*..*
*****...**.**....*..
**.........****..*--
............*.0*..*-
.....*.**.....***...
....*....*....0.*..0
...***.***....--.**-
.-..-..-.0.....*.**.
...*...**...**1*1*..
.........-..**.-....

Generation = 35, Population = 79.
.........*......-...
.........**.........
.......*.*.........-
......*.............
......*..*..........
-.....*.............
.......*....**.....-
............**-.....
...***...-........1.
.**..*..*.*.....***.
*.......***.......*.
....*...**.*....***.
*..*......*...****--
...........**.1..*.0
........*.......**..
...*.....*....1.*.*-
...***...**...00...-
.-.*1.*-.1...*.*....
........*...*.-*-**.
.........-..*..1*...

Generation = 36, Population = 81.
.........**.....-...
.........**.........
........***........-
......***...........
.....***............
-.....**............
............**.....-
....*.......**0.....
..****...-........*.
.***.*..*.*.......**
.*.....*...*.......*
........*..*......*.
.........**.***...-0
...........*.**....-
.............*..*...
...*....***...*.*..0
..*..*..***..*--*..-
.-.*-..1***..*.*....
............**1*1*..
.........-.....-**..

Generation = 37, Population = 75.
.........**.....-...
...........*........
..........*........-
.....*..............
.....*..............
-....*.*............
............*.*....-
....**......*.1.....
.*...*...-...*....**
.*...**...........**
.*.....*****.......*
........**.*.*....**
.........**...*...--
..........**...*...0
.........**.**......
........*.*..**.**.-
..***......*.*--*..1
.-..1..*..**.....*..
........**..**-.**..
.........-...**-.*..

Generation = 38, Population = 84.
..........*.....-...
.........*.*........
...................-
....................
....**..............
-.....*.............
....***............-
....**......*.*.....
.........-...*....**
***..******.........
......**...**.......
.......*...**.....**
........*...*.*...1-
............***....-
............**.**...
...*......*...****.0
...**....*.*.*-0*.*-
.-..*...****.*...**.
........******-.***.
.........0..***1**..

Generation = 39, Population = 57.
..........*.....-...
..........*.........
...................-
....................
.....*..............
-.....*.............
....*.*............-
....*.*......*......
.*..*..**0...*......
.*...*..*****.......
.*...*...*..*.......
......***.........**
..............*...*-
...........*.......-
...........**....*..
...**.....**......*-
...**...*..*.*0-...-
.-.**........*.*...*
..............-.....
........*1....*-..*.

Generation = 40, Population = 53.
................-...
....................
...................-
....................
....................
-.....*.............
......**...........-
...**.*.*...........
....*.**.-.*.*......
***.****...***......
.....*......*.......
......***.........**
.......*..........*-
...........**......-
............*.......
...**.....*..*.....0
..*..*....**.*1-...1
.-.**.......**......
..............1.....
.........*.....1....

Generation = 41, Population = 54.
................-...
....................
...................-
....................
....................
-.....**............
......*............-
...**...*...........
.**.....*-.*.*......
.*.**..*...*.*......
.*..*...*..***......
......***.........**
......***.........*-
...........**......-
............**......
...**.....*..**....1
..*..*....**..*0...*
.-.**......**.......
.............*-.....
...............-....

Generation = 42, Population = 62.
................-...
....................
...................-
....................
....................
-.....**............
.....**............-
..**...*............
.*.....**0..........
**.**..**.**.**.....
..*****.*..*.*......
.....**..*..*.....**
......*.*.........*-
.......*...***.....-
..............*.....
...**.....*....*...*
..*..*....*...*1....
.-.**.....*****.....
............*.1.....
...............-....

Generation = 43, Population = 57.
................-...
....................
...................-
....................
....................
-....***............
.....*.............-
..*....*............
**..*.*..1*.........
**........**.**.....
.**.....*..*.**.....
...*....**..*.....**
.....**.*..*.*....*-
.......*....**.....-
...........****.....
...**..........*....
..*..*...**.*..-....
.-.**.....*.*.......
............*.*.....
...............-....

Generation = 44, Population = 56.
................-...
....................
...................-
....................
......*.............
-....**.............
.....*.*...........-
.*...**.............
*.*......***........
...........*.**.....
***.....*..*..*.....
..*.....****..*...**
......*.**.*.*....*-
......**...........-
...........*..*.....
...**.....*...*.....
..*..*...**....1....
.-.**....**.*.......
...........*.*......
...............-....

Generation = 45, Population = 57.
................-...
....................
...................-
....................
.....**.............
-....*.*............
....*..*...........-
.*...**...*.........
.*........***.......
*.*......*.*.**.....
.**.....*..*..**....
..*........*.**...**
......*....**.....*-
......***.*.*......-
....................
...**....***..**....
..*..*.........-....
.-.**....*..*.......
..........***.......
...............-....

Generation = 46, Population = 59.
................-...
....................
...................-
....................
.....**.............
-...**.*............
....*..*...........-
.....**...*.........
***......*..**......
*.*......*...***....
..**.......*...*....
.**.......**.***..**
......*...*.......*-
......**....*......-
.......**...........
...**.....*.........
..*..*...*.*...1....
.-.**.....*.*.......
..........***.......
...........*...-....

Generation = 47, Population = 63.
................-...
....................
...................-
....................
....***.............
-...*..*............
....*..*...........-
.*...**.............
*.*......**.**......
*.........*..*.*....
...*.......*....*...
.***......***.**..**
......**..*.***...*-
......*.*..........-
......***...........
...**...***.........
..*..*...*.*...-....
.-.**....*..*.......
..........*.*.......
..........***..-....

Generation = 48, Population = 69.
................-...
....................
...................-
.....*..............
....***.............
-..**..*............
....*..*...........-
.*...**.............
*........******.....
.*.......**..**.....
.*.*.........*..*...
..**......*...**.***
..*...**.**.*.**..*-
.....*..**...*.....-
.....**.............
...****...*.........
..*..*.....*...-....
.-.**....*..*.......
.........**.**......
..........*.*..-....

Generation = 49, Population = 79.
................-...
....................
...................-
....***.............
...*..*.............
-..*...*............
...**..*...........-
.....**...****......
**.......*.**.*.....
***......*.....*....
.*.*.....**..*..***.
.*.*.....***.....***
..**..**..**...****-
.....*..***..**....-
.......*.*..........
...*................
..*...*...**...-....
.-.**....*..**......
.........**.**......
.........**.**.-....

Generation = 50, Population = 78.
................-...
....................
.....*.............-
....***.............
...*..**............
-.**..**............
...***.*...**......-
....***...*..*......
*.*......*....*.....
........**.*******..
...*....*..*....*..*
.*.**...*...*..*...*
..***.**....*.***..-
...........*..****.-
.........**.........
..........*.........
..*.*.....***..-....
.-.*.....*...*......
........*.....*.....
.........**.**.-....

*** Life<Cell> 15x15 ***

Generation = 0, Population = 10.
---------------
0000000000-----
---------------
---------------
---------------
---------------
---------------
---------------
---------------
---------------
---------------
---------------
---------------
---------------
---------------

Generation = 1, Population = 23.
0000000000-----
1--------10----
0000000000-----
---------------
---------------
---------------
---------------
---------------
---------------
---------------
---------------
---------------
---------------
---------------
---------------

Generation = 2, Population = 15.
---------------
-0------0*10---
---------------
0000000000-----
---------------
---------------
---------------
---------------
---------------
---------------
---------------
---------------
---------------
---------------
---------------

Generation = 3, Population = 34.
-0------0000---
1-0----01*-10--
0-000000--00---
1--------10----
0000000000-----
---------------
---------------
---------------
---------------
---------------
---------------
---------------
---------------
---------------
---------------

Generation = 4, Population = 21.
---------1-----
*01-00--*.-*10-
---------0-----
---------------
---------------
0000000000-----
---------------
---------------
---------------
---------------
---------------
---------------
---------------
---------------
---------------

Generation = 5, Population = 52.
000-00----0000-
.-*-1100**1.-10
000-00----0000-
---------1-----
0000000000-----
1--------10----
0000000000-----
---------------
---------------
---------------
---------------
---------------
---------------
---------------
---------------

Generation = 6, Population = 37.
1------00------
.0.-*---*.*.1*1
1------000-----
---0--00-*-000-
---------1-----
-0------0*10---
---------------
0000000000-----
---------------
---------------
---------------
---------------
---------------
---------------
---------------

Generation = 7, Population = 65.
----0-01-10-000
*-.0.1-0....***
---00---1--0--0
1-0-001-0*-1-10
-0-0--00----00-
1-0----01*-10--
0-000000--00---
1--------10----
0000000000-----
---------------
---------------
---------------
---------------
---------------
---------------

Generation = 8, Population = 47.
1----01--*1--1-
.0.1.-01.**....
-----00-*-01-0-
-0-----0-*-*0--
0-------0--0---
*0100001-*1----
---------0-----
---------------
---------------
0000000000-----
---------------
---------------
---------------
---------------
---------------

Generation = 9, Population = 72.
---001--0*-00-0
.-.-*11*....*..
---001--.---0-0
--0--0---*0.1--
10000000-1-1---
*------*1**----
0000000001-----
---------1-----
0000000000-----
1--------10----
0000000000-----
---------------
---------------
---------------
---------------

Generation = 10, Population = 54.
--011---1.-1---
.-.1.--**...*..
---11*-0.001---
1-100--00*1.*10
--1--1--0------
.0----0.*..----
-------11*-----
--------0-0----
---------1-----
-0------0*10---
---------------
0000000000-----
---------------
---------------
---------------

*** Life<Cell> 17x17 ***

Generation = 0, Population = 2.
-----------------
-----------------
-----------------
-----------------
-----------------
-----------------
-----------------
-----------------
-------0-0-------
-----------------
-----------------
-----------------
-----------------
-----------------
-----------------
-----------------
-----------------

Generation = 15, Population = 54.
0-0-----------0-0
---0---------0---
0---0-------0---0
-0---0-----0---0-
--0---0---0---0--
---0---0-0---0---
----0-------0----
-----0-----0-----
------0---0------
-----0-----0-----
----0-------0----
---0---0-0---0---
--0---0---0---0--
-0---0-----0---0-
0---0-------0---0
---0---------0---
0-0-----------0-0

Generation = 30, Population = 8.
-----------------
-----------------
-----------------
-----------------
-----------------
-----------------
-------0-0-------
-----------------
-----0-0-0-0-----
-----------------
-------0-0-------
-----------------
-----------------
-----------------
-----------------
-----------------
-----------------

Generation = 45, Population = 14.
-----------------
-----------------
-----------------
-----------------
-----------------
-------0-0-------
------0---0------
-----0-----0-----
----0-------0----
-----0-----0-----
------0---0------
-------0-0-------
-----------------
-----------------
-----------------
-----------------
-----------------

*** Life<Cell> 15x15 ***

Generation = 0, Population = 8.
---------------
---------0-----
---------------
------000------
---------------
-----00--------
---------------
-------0-------
---------------
---------0-----
---------------
---------------
---------------
---------------
---------------

Generation = 5, Population = 78.
------0--0---0-
-----0-01-0-0-0
--000-00000000-
-01-10-*.-1-10-
-0-00---00-00--
01*1.-*.0110---
-000--1-0000---
--0-00--100-0--
---0---00--0-0-
-----0-0----0-0
------00-----0-
------0-0------
-------0-0-----
--------0-0----
---------0-----

Generation = 10, Population = 58.
----0-*0--0-0--
--*10--1.-.-*1-
--1-0-*-1---1--
01.-.-.**..-.--
0-*101*1*0-----
--.......-..--*
0-.-.1*1*------
0--*..1...----0
----01.-1-0----
--11--*-0------
------0--------
-0---1..-10--0-
------1--------
---01--1---0---
---------------

Generation = 15, Population = 88.
10*-*-*.**11*--
*..-.1...1.-.*-
-0***0...-*0*--
.**..-.....*.-1
**.*--.*.*.1-1*
**....*..-..-1.
*0***..1*0-0---
..-..*...**-1--
.**....0.---.0*
*-..-**0.1----.
-00--.***1*-0-0
1010.1....-..--
-01-.0*--------
---*..*10-.----
0-000-1--------

Generation = 20, Population = 80.
--*-*.....**.--
*..**........**
*-*..1...1...--
.**.***.......*
**..1....*..-**
*........-..1.*
**.......1.--11
..*....*....*.1
....****.01-.*.
.-*.***...1.*..
--0-0.....*1110
.-.1*.....*...-
0.-1*-.---*-1--
*1-..*.1*..0-10
-*-.***1*--0---

Generation = 25, Population = 102.
.-*****......*.
..*....*...**..
.-*.*...*-.**.0
..*..***...*.*.
.**...***...-..
**.**...****-*.
*..***.*...--*.
*.**..**.*....*
*.**...*.1.**.*
***.**.*.*-*.**
.1****.*.*.*.-1
**..**........0
**.1*-**.0*-.--
*1*.....**.-...
**-*..*...-***1

Generation = 30, Population = 40.
.-.*****.......
..**.....*.....
.-*.**...*....-
..........***..
....**....*..*.
..**.**...*....
.....**.....-..
.....*.*.*.*...
..**.....1....*
..........-..**
.............*-
...............
.....*.....-.0.
.-.........1...
..-.......-....

Generation = 35, Population = 53.
..*.*..........
..*.*....****..
....*....*****0
....**....*...*
..****...*****.
..****....***..
...**....*.*-..
....*.....***..
........*.*..*.
..........1.*.*
............***
...............
...........1.-.
.-.........-...
..-.......-....

Generation = 40, Population = 22.
...............
....**.........
....**.......*1
..............*
..............*
.............*.
.............**
.............**
..............*
.........*.*.**
........*..*...
.........*.....
...........*.-.
.-.............
..-.......-....

Generation = 45, Population = 26.
...............
....**.........
....**.......**
............*..
............*.*
............*..
............**.
...........*...
...........*.*.
........***..*.
.......**.***..
...........**..
.............-.
.-.............
..-.......-....

Generation = 50, Population = 20.
...............
....**.........
....**.........
...............
............*..
...........*...
.........*.***.
........**.....
.......**......
.......*.*.....
.......*.*.....
........**.....
.............-.
.-.............
..-.......-....

*** Life<Cell> 5x5 ***

Generation = 0, Population = 6.
-----
--0--
-0-00
--00-
-----

Generation = 5, Population = 12.
--011
1-1-.
*--1.
*0*-0
-.0.-

Generation = 10, Population = 7.
-*-*.
*..0.
.--..
.-.*0
*.-.-

Generation = 15, Population = 5.
-....
.**-.
.1*..
.1..-
..-..

Generation = 20, Population = 9.
**.**
.....
**...
*...-
.*..*

Generation = 25, Population = 2.
.....
.....
.**..
....-
.....

Generation = 30, Population = 0.
.....
.....
.....
....-
.....

Generation = 35, Population = 0.
.....
.....
.....
....-
.....

Generation = 40, Population = 0.
.....
.....
.....
....-
.....

Generation = 45, Population = 0.
.....
.....
.....
....-
.....

Generation = 50, Population = 0.
.....
.....
.....
....-
.....

*** Life<Cell> 40x40 ***

Generation = 0, Population = 20.
----------------------------------------
-0--------------------------------------
------00--------------------------------
----0-----------------------------------
----------------------------------------
----------------------------------------
----------------------------------------
------0---------------------------------
----------------------------------------
----------------------------------------
----------------------------------------
-----------0----------------------------
----------------------------------------
----------------------------------------
----------------------------------------
----------------------------------------
----------------------------------------
---0------------------------------------
----------------------------------------
----------------------------------------
----0-----------------------------------
----------------------------------------
----------------------------------------
-----------------------0----------------
----------------------------------------
----------------------------------------
----------------------------------------
--00------------------------------------
-----0----------------------------------
----------------------------------------
----------------------------------------
-----0--0-------------------------------
------0---------------------------------
--------0-------------------------------
----------------------------------------
----------------------------------------
-----0-0--------------------------------
--0-------------------------------------
----------------------------------------
---0------------------------------------

Generation = 25, Population = 469.
.1........***-1.-.....**1*11------------
.-...***-**.1*.*....---.*00---00--------
.....*.*........*.**.****..1.1*10-------
....**.-*..-.**...***..*.*11*000--------
*.**..*.*.-.-*-...*.-.*.1-110-----------
*....*..*-1...*.10-*-1-0.-1-------------
-..*.*..***..-**.--*.-..110---00--------
*......-.*.*...*.....*.*.1-0-0110-------
*****....1***0-1--1010***-0---00--------
*..0...*..*...1..-.1.-1.0-0-------------
.....**.*....**--1-1*1-1*----------0----
....*.........*..11--00*----------0-0---
1-.-.......1.-*-1-1-00-------------0----
.1...*...*.-**-.-0-0-11-----------------
.1.-....11--.1.-0--00-00---------------0
*.1.-..-..*.**.--1---0110-------------0-
.*--*.-*1-.0..0-1--0--00---0-----------0
.....*..*1-.0.1**00-0-----0-0-----------
.1...*1*1.0**.0-------------------------
-..*..***..*.10-01--00----0-------------
...**..-***.-1-*.*0-0-0------0----------
....*..1..-1*--*.-010-------0-----------
.-*........-*..1*-1*1*--0------0-0------
.**.........-***..-1*1-0-0----0---0-----
-........*-..*.**1...*.-0------0-0------
..*...........*..***.011*0--------------
-**...*.-..-.*..*..0..*-0100------------
*.*..**.....**..10..0.-.*-*100----------
-.***.......1...*..*1*-*-0*---0---------
*.**...1...--**..*.**.11-*1-1-----------
*..**.**-..........0..0**-0-*-0-0------0
*.***..*.*1...-..-.**.*..1*------0----0-
**...0.*.**.*-*-..-*.-..**.-.010-------0
*...-..*......***1..*-...0--1-00-0------
........*0*1*.--**0*.....-------0-------
.*.*.....*.*0...-..-*..11.---0-0--------
.*-*.....-......*--.-...1-110---0-------
**.....***1....1--...1.-.--.-0-0--------
......*...*.1.**.*1-00-.01-1---0--------
......*..***...*.--..-***00.0-0-0-------

Generation = 50, Population = 369.
.*....**....*.*...**.........-...*..*0..
*.*...*.**.....*.*.*..-........-........
......**.****.*.**..............*..-*...
..*..**......*...**...............*.***.
.**.....**....-................**.......
.*....**......................1*........
..*...*..........-................-.....
.....*..............................***1
.........-......................-..1*.*.
...***....*.*........-......1*.....*....
...**..*.....*............-1**...**....*
.....*.*.....*..............**..**1....*
...-...**....*...............***.-..--..
........*...*.............**.**.-*.*.-..
........**.**-.............*....-..-.-.*
..........*...............*..**-**.*-*.1
......-...**........-...*.....*.-.*--..*
...*......**.**.....-..***.**-*..**1*-.*
...*......**.*--.....1.*.*....1*...10..1
...*.....*****....-...***...-......-.*.1
...*.....*.**.....-....*.......*.-0-.*.-
..*.*..***.*....*.**.*.**.......-.**0.1-
..*..*...*.....*****-*.**....****1*..**.
...*...*..*..*.*.....*.*...1*....1.....*
......*....**..**...*.......*...***....*
......*...........**.....**..1.*.****.-1
-....*..***..........*...**....-....-..1
.....*...***.*........****..0*....*...-.
**..***.*.****.......*..*-...........-.-
....*...*...**.......*.*-...**..........
.....*****...*.......*....*.......*...-.
......*..***.*.......*.........**.*..*..
........**...*........*...*...**..*1**..
*.*......*..*.........**.*...*....*.*.*.
.*...**...**......*.....*...*...**.**.*.
...*..**........*.*..........*..*.....*.
.**.*..*.......*.......................*
.**...*....**...**.*.................***
...*..*...*..*...***................*...
....*......**....-...-...............*-.

*** Life<Cell> 5x5 ***

Generation = 0, Population = 25.
00000
00000
00000
00000
00000

Generation = 10, Population = 12.
-*-*-
*-0-*
-0-0-
*-0-*
-*-*-

Generation = 20, Population = 12.
-*-*-
*-0-*
-0-0-
*-0-*
-*-*-

Generation = 30, Population = 12.
-*-*-
*-0-*
-0-0-
*-0-*
-*-*-

Generation = 40, Population = 12.
-*-*-
*-0-*
-0-0-
*-0-*
-*-*-

Generation = 50, Population = 12.
-*-*-
*-0-*
-0-0-
*-0-*
-*-*-

*** Life<Cell> 10x10 ***

Generation = 0, Population = 61.
0000000000
0000000000
0000000000
0000000000
0000000000
0000000000
0---------
----------
----------
----------

Generation = 25, Population = 6.
....-....-
..........
..........
..........
..........
.***.....-
.***......
.........-
........-.
.........-

Generation = 50, Population = 6.
....-....-
..........
..........
..........
..*.......
.*.*.....-
.*.*......
..*......-
........-.
.........-
